[gd_scene load_steps=2 format=2]

[ext_resource path="res://game/NewGame.tscn" type="PackedScene" id=1]

[node name="Options" instance=ExtResource( 1 )]
margin_left = -1.0
margin_right = -1.0

[node name="VBoxContainer" parent="CenterContainer" index="0"]
margin_left = 638.0
margin_right = 1282.0

[node name="Label" parent="CenterContainer/VBoxContainer" index="0"]
margin_right = 644.0
text = "Options Scene Placeholder"

[node name="Button" parent="CenterContainer/VBoxContainer" index="1"]
margin_right = 644.0
