; Engine configuration file.
; It's best edited using the editor UI and not directly,
; since the parameters that go here are not all obvious.
;
; Format:
;   [section] ; section goes between []
;   param=value ; assign values to parameters

config_version=4

_global_script_classes=[  ]
_global_script_class_icons={

}

[application]

config/name="The Game"
boot_splash/bg_color=Color( 0.141176, 0.141176, 0.141176, 1 )
config/icon="res://icon.png"

[display]

window/size/width=1920
window/size/height=1080
window/size/fullscreen=true
window/stretch/mode="2d"
window/stretch/aspect="expand"

[rendering]

environment/default_clear_color=Color( 0.176471, 0.172549, 0.172549, 1 )
environment/default_environment="res://default_env.tres"
