[gd_resource type="DynamicFont" load_steps=2 format=2]

[ext_resource path="res://main_menu/Fonts/connection_ii/ConnectionII.otf" type="DynamicFontData" id=1]

[resource]
size = 32
font_data = ExtResource( 1 )
